{
  "count": 295,
  "next": "https://ll.thespacedevs.com/2.2.0/agencies/?format=json&limit=10&offset=10&ordering=attempted_landings",
  "previous": null,
  "results": [
    {
      "id": 96,
      "url": "https://ll.thespacedevs.com/2.2.0/agencies/96/?format=json",
      "name": "Khrunichev State Research and Production Space Center",
      "featured": true,
      "type": "Government",
      "country_code": "RUS",
      "abbrev": "KhSC",
      "description": "Khrunichev State Research and Production Space Center is a Moscow-based producer of spacecraft and space-launch systems, including the Proton and Rokot rockets and is currently developing the Angara rocket family. The Proton launch vehicle launches from Baikonur and Rokot launches from Baikonur and Plesetsk. Angara will launch from Plesetsk and Vostochny.",
      "administrator": "Director: Andrey Vladimirovich Kalinovskiy",
      "founding_year": "1916",
      "launchers": "Proton | Rokot",
      "spacecraft": "",
      "parent": null,
      "image_url": "https://spacelaunchnow-prod-east.nyc3.digitaloceanspaces.com/media/agency_images/khrunichev2520state2520research2520and2520production2520space2520center_image_20190207032444.jpeg",
      "logo_url": "https://spacelaunchnow-prod-east.nyc3.digitaloceanspaces.com/media/logo/khrunichev2520state2520research2520and2520production2520space2520center_logo_20190207032444.png"
    },
    {
      "id": 1041,
      "url": "https://ll.thespacedevs.com/2.2.0/agencies/1041/?format=json",
      "name": "United States Space Force",
      "featured": false,
      "type": "Government",
      "country_code": "USA",
      "abbrev": "USSF",
      "description": "The United States Space Force (USSF) is the space service branch of the U.S. Armed Forces, one of the eight U.S. uniformed services.",
      "administrator": null,
      "founding_year": "2019",
      "launchers": "",
      "spacecraft": "",
      "parent": null,
      "image_url": null,
      "logo_url": "https://spacelaunchnow-prod-east.nyc3.digitaloceanspaces.com/media/logo/united2520states2520space2520force_logo_20221102113048.png"
    },
    {
      "id": 79,
      "url": "https://ll.thespacedevs.com/2.2.0/agencies/79/?format=json",
      "name": "JSC Information Satellite Systems",
      "featured": false,
      "type": "Commercial",
      "country_code": "RUS",
      "abbrev": "JSC-ISS",
      "description": null,
      "administrator": null,
      "founding_year": null,
      "launchers": "",
      "spacecraft": "",
      "parent": null,
      "image_url": null,
      "logo_url": null
    },
    {
      "id": 214,
      "url": "https://ll.thespacedevs.com/2.2.0/agencies/214/?format=json",
      "name": "Spire Global",
      "featured": false,
      "type": "Commercial",
      "country_code": "USA",
      "abbrev": "SPIRE",
      "description": null,
      "administrator": null,
      "founding_year": null,
      "launchers": "",
      "spacecraft": "",
      "parent": null,
      "image_url": null,
      "logo_url": null
    },
    {
      "id": 1043,
      "url": "https://ll.thespacedevs.com/2.2.0/agencies/1043/?format=json",
      "name": "European Union Agency for the Space Programme",
      "featured": false,
      "type": "Multinational",
      "country_code": "AUT,BEL,BGR,HRV,CYP,CZE,DNK,EST,FIN,FRA,DEU,GRC,HUN,IRL,ITA,LVA,LTU,LUX,MLT,NLD,POL,PRT,ROU,SVK,SVN,ESP,SWE",
      "abbrev": "EUSPA",
      "description": "The European Union Agency for the Space Programme (EUSPA) is a space agency, managing the European Union Space Programme as one of the agencies of the European Union (EU). It was initially created as the European Global Navigation Satellite Systems Supervisory Authority (GSA) in 2004, reorganised into the European Global Navigation Satellite Systems Agency (also GSA) in 2010, and established in its current form on May 12, 2021. EUSPA is a separate entity from the European Space Agency (ESA), although the two entities work together closely.",
      "administrator": "Executive Director: Rodrigo da Costa",
      "founding_year": "2021",
      "launchers": "",
      "spacecraft": "",
      "parent": null,
      "image_url": null,
      "logo_url": "https://spacelaunchnow-prod-east.nyc3.digitaloceanspaces.com/media/logo/european2520union2520agency2520for2520the2520space2520programme_logo_20221129162709.png"
    },
    {
      "id": 126,
      "url": "https://ll.thespacedevs.com/2.2.0/agencies/126/?format=json",
      "name": "Deep Space Industries",
      "featured": false,
      "type": "Commercial",
      "country_code": "USA",
      "abbrev": "DSI",
      "description": null,
      "administrator": null,
      "founding_year": null,
      "launchers": "",
      "spacecraft": "",
      "parent": null,
      "image_url": null,
      "logo_url": null
    },
    {
      "id": 157,
      "url": "https://ll.thespacedevs.com/2.2.0/agencies/157/?format=json",
      "name": "Bristol Aerospace Company",
      "featured": false,
      "type": "Commercial",
      "country_code": "CAN",
      "abbrev": "BAC",
      "description": null,
      "administrator": null,
      "founding_year": null,
      "launchers": "",
      "spacecraft": "",
      "parent": null,
      "image_url": null,
      "logo_url": null
    },
    {
      "id": 242,
      "url": "https://ll.thespacedevs.com/2.2.0/agencies/242/?format=json",
      "name": "Paradigm Secure Communications",
      "featured": false,
      "type": "Commercial",
      "country_code": "GBR",
      "abbrev": "PSCOM",
      "description": null,
      "administrator": null,
      "founding_year": null,
      "launchers": "",
      "spacecraft": "",
      "parent": null,
      "image_url": null,
      "logo_url": null
    },
    {
      "id": 178,
      "url": "https://ll.thespacedevs.com/2.2.0/agencies/178/?format=json",
      "name": "Airbus Defence and Space",
      "featured": false,
      "type": "Multinational",
      "country_code": "FRA,GER,GBR,ESP,ITA",
      "abbrev": "AIRDS",
      "description": "Airbus Defence and Space is a division of Airbus responsible for defence and aerospace products and services. The division was formed in January 2014 during the corporate restructuring of European Aeronautic Defence and Space (EADS), and comprises the former Airbus Military, Astrium, and Cassidian divisions. It is the world's second largest space company after Boeing and one of the top ten defence companies in the world.",
      "administrator": "CEO: Michael Schoellhorn",
      "founding_year": "2014",
      "launchers": "Ariane",
      "spacecraft": "Automated Transfer Vehicle (ATV) | Columbus (ISS Science Laboratory) | Orion Service Module",
      "parent": null,
      "image_url": "https://spacelaunchnow-prod-east.nyc3.digitaloceanspaces.com/media/agency_images/airbus2520defence2520and2520space_image_20190207032423.jpeg",
      "logo_url": "https://spacelaunchnow-prod-east.nyc3.digitaloceanspaces.com/media/logo/airbus2520defence2520and2520space_logo_20190207032423.png"
    },
    {
      "id": 44,
      "url": "https://ll.thespacedevs.com/2.2.0/agencies/44/?format=json",
      "name": "National Aeronautics and Space Administration",
      "featured": true,
      "type": "Government",
      "country_code": "USA",
      "abbrev": "NASA",
      "description": "The National Aeronautics and Space Administration is an independent agency of the executive branch of the United States federal government responsible for the civilian space program, as well as aeronautics and aerospace research. NASA have many launch facilities but most are inactive. The most commonly used pad will be LC-39B at Kennedy Space Center in Florida.",
      "administrator": "Administrator: Bill Nelson",
      "founding_year": "1958",
      "launchers": "Space Shuttle | SLS",
      "spacecraft": "Orion",
      "parent": null,
      "image_url": "https://spacelaunchnow-prod-east.nyc3.digitaloceanspaces.com/media/agency_images/national2520aeronautics2520and2520space2520administration_image_20190207032448.jpeg",
      "logo_url": "https://spacelaunchnow-prod-east.nyc3.digitaloceanspaces.com/media/logo/national2520aeronautics2520and2520space2520administration_logo_20190207032448.png"
    }
  ]
}
