{
  "count": 19,
  "next": "https://ll.thespacedevs.com/2.2.0/pad/?agency_id=&agency_id__contains=&format=json&id=&id__contains=&latitude=&latitude__contains=&limit=10&location__id=&location__name=&location__name__contains=&longitude=&longitude__contains=&name=&name__contains=&offset=10&orbital_launch_attempt_count=&orbital_launch_attempt_count__gt=&orbital_launch_attempt_count__gte=&orbital_launch_attempt_count__lt=&orbital_launch_attempt_count__lte=&total_launch_count=&total_launch_count__gt=100&total_launch_count__gte=&total_launch_count__lt=&total_launch_count__lte=",
  "previous": null,
  "results": [
    {
      "id": 28,
      "url": "https://ll.thespacedevs.com/2.2.0/pad/28/?format=json",
      "agency_id": 163,
      "name": "132/1 (132L)",
      "info_url": null,
      "wiki_url": "",
      "map_url": "https://www.google.com/maps?q=62.883229,40.868549",
      "latitude": "62.883229",
      "longitude": "40.868549",
      "location": {
        "id": 6,
        "url": "https://ll.thespacedevs.com/2.2.0/location/6/?format=json",
        "name": "Plesetsk Cosmodrome, Russian Federation",
        "country_code": "RUS",
        "map_image": "https://spacelaunchnow-prod-east.nyc3.digitaloceanspaces.com/media/launch_images/location_6_20200803142434.jpg",
        "timezone_name": "Europe/Moscow",
        "total_launch_count": 1661,
        "total_landing_count": 0
      },
      "map_image": "https://spacelaunchnow-prod-east.nyc3.digitaloceanspaces.com/media/launch_images/pad_28_20200803143254.jpg",
      "total_launch_count": 212,
      "orbital_launch_attempt_count": 212
    },
    {
      "id": 35,
      "url": "https://ll.thespacedevs.com/2.2.0/pad/35/?format=json",
      "agency_id": 163,
      "name": "16/2",
      "info_url": null,
      "wiki_url": "",
      "map_url": "https://www.google.com/maps?q=62.960091,40.682983",
      "latitude": "62.960091",
      "longitude": "40.682983",
      "location": {
        "id": 6,
        "url": "https://ll.thespacedevs.com/2.2.0/location/6/?format=json",
        "name": "Plesetsk Cosmodrome, Russian Federation",
        "country_code": "RUS",
        "map_image": "https://spacelaunchnow-prod-east.nyc3.digitaloceanspaces.com/media/launch_images/location_6_20200803142434.jpg",
        "timezone_name": "Europe/Moscow",
        "total_launch_count": 1661,
        "total_landing_count": 0
      },
      "map_image": "https://spacelaunchnow-prod-east.nyc3.digitaloceanspaces.com/media/launch_images/pad_35_20200803143306.jpg",
      "total_launch_count": 135,
      "orbital_launch_attempt_count": 135
    },
    {
      "id": 29,
      "url": "https://ll.thespacedevs.com/2.2.0/pad/29/?format=json",
      "agency_id": null,
      "name": "Space Launch Complex 41",
      "info_url": null,
      "wiki_url": "https://en.wikipedia.org/wiki/Cape_Canaveral_Air_Force_Station_Space_Launch_Complex_41",
      "map_url": "https://www.google.com/maps?q=28.58341025,-80.58303644",
      "latitude": "28.58341025",
      "longitude": "-80.58303644",
      "location": {
        "id": 12,
        "url": "https://ll.thespacedevs.com/2.2.0/location/12/?format=json",
        "name": "Cape Canaveral, FL, USA",
        "country_code": "USA",
        "map_image": "https://spacelaunchnow-prod-east.nyc3.digitaloceanspaces.com/media/launch_images/location_12_20200803142519.jpg",
        "timezone_name": "America/New_York",
        "total_launch_count": 882,
        "total_landing_count": 33
      },
      "map_image": "https://spacelaunchnow-prod-east.nyc3.digitaloceanspaces.com/media/launch_images/pad_29_20200803143528.jpg",
      "total_launch_count": 108,
      "orbital_launch_attempt_count": 108
    },
    {
      "id": 167,
      "url": "https://ll.thespacedevs.com/2.2.0/pad/167/?format=json",
      "agency_id": null,
      "name": "132/2",
      "info_url": null,
      "wiki_url": "https://en.wikipedia.org/wiki/Plesetsk_Cosmodrome",
      "map_url": "https://www.google.com/maps?q=62.883,40.869806",
      "latitude": "62.883",
      "longitude": "40.869806",
      "location": {
        "id": 6,
        "url": "https://ll.thespacedevs.com/2.2.0/location/6/?format=json",
        "name": "Plesetsk Cosmodrome, Russian Federation",
        "country_code": "RUS",
        "map_image": "https://spacelaunchnow-prod-east.nyc3.digitaloceanspaces.com/media/launch_images/location_6_20200803142434.jpg",
        "timezone_name": "Europe/Moscow",
        "total_launch_count": 1661,
        "total_landing_count": 0
      },
      "map_image": "https://spacelaunchnow-prod-east.nyc3.digitaloceanspaces.com/media/launch_images/pad_167_20200803143417.jpg",
      "total_launch_count": 172,
      "orbital_launch_attempt_count": 172
    },
    {
      "id": 31,
      "url": "https://ll.thespacedevs.com/2.2.0/pad/31/?format=json",
      "agency_id": null,
      "name": "81/23 (81L)",
      "info_url": null,
      "wiki_url": "",
      "map_url": "https://www.google.com/maps?q=46.073997,62.977999",
      "latitude": "46.073997",
      "longitude": "62.977999",
      "location": {
        "id": 15,
        "url": "https://ll.thespacedevs.com/2.2.0/location/15/?format=json",
        "name": "Baikonur Cosmodrome, Republic of Kazakhstan",
        "country_code": "KAZ",
        "map_image": "https://spacelaunchnow-prod-east.nyc3.digitaloceanspaces.com/media/launch_images/location_15_20200803142517.jpg",
        "timezone_name": "Asia/Qyzylorda",
        "total_launch_count": 1540,
        "total_landing_count": 0
      },
      "map_image": "https://spacelaunchnow-prod-east.nyc3.digitaloceanspaces.com/media/launch_images/pad_31_20200803143402.jpg",
      "total_launch_count": 104,
      "orbital_launch_attempt_count": 104
    },
    {
      "id": 87,
      "url": "https://ll.thespacedevs.com/2.2.0/pad/87/?format=json",
      "agency_id": null,
      "name": "Launch Complex 39A",
      "info_url": null,
      "wiki_url": "https://en.wikipedia.org/wiki/Kennedy_Space_Center_Launch_Complex_39#Launch_Pad_39A",
      "map_url": "https://www.google.com/maps?q=28.60822681,-80.60428186",
      "latitude": "28.60822681",
      "longitude": "-80.60428186",
      "location": {
        "id": 27,
        "url": "https://ll.thespacedevs.com/2.2.0/location/27/?format=json",
        "name": "Kennedy Space Center, FL, USA",
        "country_code": "USA",
        "map_image": "https://spacelaunchnow-prod-east.nyc3.digitaloceanspaces.com/media/launch_images/location_27_20200803142447.jpg",
        "timezone_name": "America/New_York",
        "total_launch_count": 217,
        "total_landing_count": 0
      },
      "map_image": "https://spacelaunchnow-prod-east.nyc3.digitaloceanspaces.com/media/launch_images/pad_87_20200803143537.jpg",
      "total_launch_count": 159,
      "orbital_launch_attempt_count": 158
    },
    {
      "id": 1,
      "url": "https://ll.thespacedevs.com/2.2.0/pad/1/?format=json",
      "agency_id": null,
      "name": "Space Launch Complex 17B",
      "info_url": null,
      "wiki_url": "https://en.wikipedia.org/wiki/Cape_Canaveral_Space_Launch_Complex_17",
      "map_url": "https://www.google.com/maps?q=28.4458,-80.5657",
      "latitude": "28.4458",
      "longitude": "-80.5657",
      "location": {
        "id": 12,
        "url": "https://ll.thespacedevs.com/2.2.0/location/12/?format=json",
        "name": "Cape Canaveral, FL, USA",
        "country_code": "USA",
        "map_image": "https://spacelaunchnow-prod-east.nyc3.digitaloceanspaces.com/media/launch_images/location_12_20200803142519.jpg",
        "timezone_name": "America/New_York",
        "total_launch_count": 882,
        "total_landing_count": 33
      },
      "map_image": "https://spacelaunchnow-prod-east.nyc3.digitaloceanspaces.com/media/launch_images/pad_1_20200803143208.jpg",
      "total_launch_count": 132,
      "orbital_launch_attempt_count": 132
    },
    {
      "id": 80,
      "url": "https://ll.thespacedevs.com/2.2.0/pad/80/?format=json",
      "agency_id": 121,
      "name": "Space Launch Complex 40",
      "info_url": null,
      "wiki_url": "https://en.wikipedia.org/wiki/Cape_Canaveral_Air_Force_Station_Space_Launch_Complex_40",
      "map_url": "https://www.google.com/maps?q=28.56194122,-80.57735736",
      "latitude": "28.56194122",
      "longitude": "-80.57735736",
      "location": {
        "id": 12,
        "url": "https://ll.thespacedevs.com/2.2.0/location/12/?format=json",
        "name": "Cape Canaveral, FL, USA",
        "country_code": "USA",
        "map_image": "https://spacelaunchnow-prod-east.nyc3.digitaloceanspaces.com/media/launch_images/location_12_20200803142519.jpg",
        "timezone_name": "America/New_York",
        "total_launch_count": 882,
        "total_landing_count": 33
      },
      "map_image": "https://spacelaunchnow-prod-east.nyc3.digitaloceanspaces.com/media/launch_images/pad_80_20200803143323.jpg",
      "total_launch_count": 176,
      "orbital_launch_attempt_count": 176
    },
    {
      "id": 20,
      "url": "https://ll.thespacedevs.com/2.2.0/pad/20/?format=json",
      "agency_id": null,
      "name": "31/6",
      "info_url": null,
      "wiki_url": "https://en.wikipedia.org/wiki/Baikonur_Cosmodrome_Site_31",
      "map_url": "https://www.google.com/maps?q=45.996034,63.564003",
      "latitude": "45.996034",
      "longitude": "63.564003",
      "location": {
        "id": 15,
        "url": "https://ll.thespacedevs.com/2.2.0/location/15/?format=json",
        "name": "Baikonur Cosmodrome, Republic of Kazakhstan",
        "country_code": "KAZ",
        "map_image": "https://spacelaunchnow-prod-east.nyc3.digitaloceanspaces.com/media/launch_images/location_15_20200803142517.jpg",
        "timezone_name": "Asia/Qyzylorda",
        "total_launch_count": 1540,
        "total_landing_count": 0
      },
      "map_image": "https://spacelaunchnow-prod-east.nyc3.digitaloceanspaces.com/media/launch_images/pad_20_20200803143516.jpg",
      "total_launch_count": 407,
      "orbital_launch_attempt_count": 407
    },
    {
      "id": 77,
      "url": "https://ll.thespacedevs.com/2.2.0/pad/77/?format=json",
      "agency_id": null,
      "name": "Ariane Launch Area 3",
      "info_url": null,
      "wiki_url": "http://en.wikipedia.org/wiki/ELA-3",
      "map_url": "https://www.google.com/maps?q=5.239,-52.768",
      "latitude": "5.239",
      "longitude": "-52.768",
      "location": {
        "id": 13,
        "url": "https://ll.thespacedevs.com/2.2.0/location/13/?format=json",
        "name": "Kourou, French Guiana",
        "country_code": "GUF",
        "map_image": "https://spacelaunchnow-prod-east.nyc3.digitaloceanspaces.com/media/launch_images/location_13_20200803142412.jpg",
        "timezone_name": "America/Cayenne",
        "total_launch_count": 318,
        "total_landing_count": 0
      },
      "map_image": "https://spacelaunchnow-prod-east.nyc3.digitaloceanspaces.com/media/launch_images/pad_77_20200803143458.jpg",
      "total_launch_count": 117,
      "orbital_launch_attempt_count": 117
    }
  ]
}
